%YAML 1.1
%TAG !u! tag:unity3d.com,2011:
--- !u!1001 &100100000
Prefab:
  m_ObjectHideFlags: 1
  serializedVersion: 2
  m_Modification:
    m_TransformParent: {fileID: 0}
    m_Modifications: []
    m_RemovedComponents: []
  m_ParentPrefab: {fileID: 0}
  m_RootGameObject: {fileID: 1259535029932732}
  m_IsPrefabParent: 1
--- !u!1 &1259535029932732
GameObject:
  m_ObjectHideFlags: 0
  m_PrefabParentObject: {fileID: 0}
  m_PrefabInternal: {fileID: 100100000}
  serializedVersion: 5
  m_Component:
  - component: {fileID: 4637075929638938}
  - component: {fileID: 114154793970017536}
  m_Layer: 2
  m_Name: GAME_MANAGER
  m_TagString: GAME_MANAGER
  m_Icon: {fileID: 0}
  m_NavMeshLayer: 0
  m_StaticEditorFlags: 4294967295
  m_IsActive: 1
--- !u!4 &4637075929638938
Transform:
  m_ObjectHideFlags: 1
  m_PrefabParentObject: {fileID: 0}
  m_PrefabInternal: {fileID: 100100000}
  m_GameObject: {fileID: 1259535029932732}
  m_LocalRotation: {x: 0, y: 0, z: 0, w: 1}
  m_LocalPosition: {x: 0, y: 0, z: 0}
  m_LocalScale: {x: 1, y: 1, z: 1}
  m_Children: []
  m_Father: {fileID: 0}
  m_RootOrder: 0
  m_LocalEulerAnglesHint: {x: 0, y: 0, z: 0}
--- !u!114 &114154793970017536
MonoBehaviour:
  m_ObjectHideFlags: 1
  m_PrefabParentObject: {fileID: 0}
  m_PrefabInternal: {fileID: 100100000}
  m_GameObject: {fileID: 1259535029932732}
  m_Enabled: 1
  m_EditorHideFlags: 0
  m_Script: {fileID: 11500000, guid: 6259eedb83818454b8e6e4ef49eb3ae7, type: 3}
  m_Name: 
  m_EditorClassIdentifier: 
  e_State: 0
  e_FinishState: 0
  UI_CanvasTitle: {fileID: 0}
  UI_CanvasTitleBackground: {fileID: 0}
  UI_CanvasGameplay: {fileID: 0}
  UI_CanvasIntro: {fileID: 0}
  UI_CanvasFinish: {fileID: 0}
  timeUntilReboot: 2
